{
    "data": [
        [20220630, {"ticksize": 0.0001, "lotsize": 0.1, "min_order_size": 0.1, "price_precision": 4.0, "qty_precision": 4.0, "multiple": 1.0, "coin": "1INCH", "base_coin": "USDC", "local_name": "1INCH-USDC", "ct_type": false}]
    ]
}