{
    "data": [
        [0, {"ticksize": 1e-12, "lotsize": 1000000000.0, "min_order_size": 1000000000.0, "price_precision": 12.0, "qty_precision": 0.0, "multiple": 1.0, "coin": "BABYDOGE", "base_coin": "USDT", "local_name": "BABYDOGE-USDT", "ct_type": false}]
    ]
}