{
    "data": [
        [0, {"ticksize": 0.001, "lotsize": 1.0, "min_order_size": 1.0, "price_precision": 3.0, "qty_precision": 6.0, "multiple": 1.0, "coin": "DIA", "base_coin": "USDT", "local_name": "DIA-USDT", "ct_type": false}]
    ]
}