{
    "data": [
        [0, {"ticksize": 1e-08, "lotsize": 10.0, "min_order_size": 10.0, "price_precision": 8.0, "qty_precision": 2.0, "multiple": 1.0, "coin": "IOST", "base_coin": "ETH", "local_name": "IOST-ETH", "ct_type": false}]
    ]
}