{
    "data": [
        [0, {"ticksize": 1e-06, "lotsize": 1000.0, "min_order_size": 1000.0, "price_precision": 6.0, "qty_precision": 3.0, "multiple": 1.0, "coin": "MON", "base_coin": "USDT", "local_name": "MON-USDT", "ct_type": false}]
    ]
}