{
    "data": [
        [0, {"ticksize": 0.001, "lotsize": 0.5, "min_order_size": 0.5, "price_precision": 3.0, "qty_precision": 8.0, "multiple": 1.0, "coin": "NEAR", "base_coin": "USDT", "local_name": "NEAR-USDT", "ct_type": false}]
    ]
}