{
    "data": [
        [20220630, {"ticksize": 0.001, "lotsize": 0.1, "min_order_size": 0.1, "price_precision": 3.0, "qty_precision": 4.0, "multiple": 1.0, "coin": "OMG", "base_coin": "USDC", "local_name": "OMG-USDC", "ct_type": false}]
    ]
}