{
    "data": [
        [20220630, {"ticksize": 1e-07, "lotsize": 1000.0, "min_order_size": 1000.0, "price_precision": 7.0, "qty_precision": 0.0, "multiple": 1.0, "coin": "RACA", "base_coin": "USDC", "local_name": "RACA-USDC", "ct_type": false}]
    ]
}