{
    "data": [
        [0, {"ticksize": 1e-06, "lotsize": 100.0, "min_order_size": 100.0, "price_precision": 6.0, "qty_precision": 6.0, "multiple": 1.0, "coin": "ROAD", "base_coin": "USDT", "local_name": "ROAD-USDT", "ct_type": false}]
    ]
}