{
    "data": [
        [20220630, {"ticksize": 0.0001, "lotsize": 1.0, "min_order_size": 1.0, "price_precision": 4.0, "qty_precision": 4.0, "multiple": 1.0, "coin": "SAND", "base_coin": "USDC", "local_name": "SAND-USDC", "ct_type": false}]
    ]
}