{
    "data": [
        [0, {"ticksize": 1e-05, "lotsize": 1.0, "min_order_size": 1.0, "price_precision": 5.0, "qty_precision": 6.0, "multiple": 1.0, "coin": "TOWN", "base_coin": "USDT", "local_name": "TOWN-USDT", "ct_type": false}]
    ]
}