{
    "data": [
        [0, {"ticksize": 0.1, "lotsize": 1e-05, "min_order_size": 1e-05, "price_precision": 1.0, "qty_precision": 6.0, "multiple": 1.0, "coin": "WBTC", "base_coin": "USDT", "local_name": "WBTC-USDT", "ct_type": false}]
    ]
}