{
    "data": [
        [20220630, {"ticksize": 1e-05, "lotsize": 1.0, "min_order_size": 1.0, "price_precision": 5.0, "qty_precision": 4.0, "multiple": 1.0, "coin": "XLM", "base_coin": "USDC", "local_name": "XLM-USDC", "ct_type": false}]
    ]
}