{
    "data": [
        [20220630, {"ticksize": 0.005, "lotsize": 0.025, "min_order_size": 0.025, "price_precision": 2.3010299956639813, "qty_precision": 1.6020599913279623, "multiple": 1.0, "coin": "ABNB", "base_coin": "USD", "local_name": "ABNB-0930", "ct_type": "standard"}]
    ]
}