{
    "data": [
        [0, {"ticksize": 1.0, "lotsize": 0.0001, "min_order_size": 0.0001, "price_precision": 0.0, "qty_precision": 4.0, "multiple": 1.0, "coin": "BTC", "base_coin": "USD", "local_name": "BTC-MOVE-0423", "ct_type": "standard"}]
    ]
}