{
    "data": [
        [20220630, {"ticksize": 5e-05, "lotsize": 1.0, "min_order_size": 1.0, "price_precision": 4.301029995663981, "qty_precision": 0.0, "multiple": 1.0, "coin": "FTM", "base_coin": "USD", "local_name": "FTM-0930", "ct_type": "standard"}]
    ]
}