{
    "data": [
        [20220630, {"ticksize": 0.005, "lotsize": 0.01, "min_order_size": 0.01, "price_precision": 2.3010299956639813, "qty_precision": 2.0, "multiple": 1.0, "coin": "GDXJ", "base_coin": "USD", "local_name": "GDXJ-0930", "ct_type": "standard"}]
    ]
}