{
    "data": [
        [20220630, {"ticksize": 0.1, "lotsize": 0.001, "min_order_size": 0.001, "price_precision": 1.0, "qty_precision": 3.0, "multiple": 1.0, "coin": "GOOGL", "base_coin": "USD", "local_name": "GOOGL-0930", "ct_type": "standard"}]
    ]
}