{
    "data": [
        [0, {"ticksize": 5.0, "lotsize": 0.001, "min_order_size": 0.001, "price_precision": 0.6989700043360189, "qty_precision": 3.0, "multiple": 1.0, "coin": "YFI", "base_coin": "USD", "local_name": "YFI-0624", "ct_type": "standard"}]
    ]
}