{
    "instance": {
    	"log_path": "./simple_taker_test_01",        
        "name": "simple_taker_test_01"
    },	    
    "servers":{
        "redis_server":"127.0.0.1"                           
    }, 
    "exchanges":[
        {"exchange":"OKEX_SWAP","trade_type":"Direct","market_data_type":"Direct"}
    ],
    "apikeys": {
     "OKEX_SWAP": {
        "key": "enter your api key",
        "secret": "enter your api secert",
        "pass": "enter your api passphrase"
         }		
    },
    "fees": {
        "OKEX_SWAP": {
            "make": 0.0,
            "take": 0.0002
        }
    },    
    "symbol_info": {
    }, 
    "symbols": [
        {"cid": 1001, "port": ["BTCUSDTSWAP", "OKEX_SWAP"]}        
    ],
    "samplers": [
    ],
    "pricing_models": [
    ],
    "variables": [    	
    ],
	"models": [
    ],
    "strategies": [                                 
        ["BTCUSDTSWAP.OKEX_SWAP", [
            "SimpleTakerStrategy", {
                "symbol": "BTCUSDTSWAP",
                "trade_market": "OKEX_SWAP",
                "take_from_mid_bps": -10.0,
                "order_size": 0.0001
            }]]                          
    ]
}
