{
    "data": [
        [20220630, {"ticksize": 0.01, "lotsize": 0.001, "min_order_size": 0.001, "price_precision": 2.0, "qty_precision": 3.0, "multiple": 1.0, "coin": "ETH", "base_coin": "USDT", "local_name": "ETHUSDT_220930", "ct_type": "standard"}]
    ]
}