{
    "data": [
        [0, {"ticksize": 0.001, "lotsize": 0.1, "min_order_size": 0.1, "price_precision": 3.0, "qty_precision": 0.0, "multiple": 10.0, "coin": "BSV", "base_coin": "USD", "local_name": "BSV220624", "ct_type": "inverse"}]
    ]
}