{
    "instance": {
    	"log_path": "./alpha01_test_01",        
        "name": "alpha01_test_01",
        "trade_okex":true
    },	    
    "servers":{
        "redis_server":"127.0.0.1"                           
    }, 
    "exchanges":[
        {"exchange":"OKEX","trade_type":"Direct","market_data_type":"Direct"}
    ],
    "apikeys": {
        "OKEX": {
            "key": "enter your api key",
            "secret": "enter your api secert",
            "pass": "enter your api passphrase"
            }		
    },
    "fees": {
        "OKEX": {
            "make": 0.0,
            "take": 0.0002
        }
    },
    "symbol_info": {
    },     
    "symbols": [
        {"cid": 1002, "port": ["BTCUSDT", "OKEX"]}
    ],
    "samplers": [
    ],
    "pricing_models": [
    ],
    "variables": [    	
    ],
	"models": [
    ],
    "strategies": [      
        ["BTCUSDT.OKEX", [
            "CSampleStrategy", {
                "symbol": "BTCUSDT",
                "trade_market": "OKEX"
            }]]                          
    ]
}
