{
    "data": [
        [0, {"ticksize": 1e-06, "lotsize": 10.0, "min_order_size": 10.0, "price_precision": 6.0, "qty_precision": 1.0, "multiple": 1.0, "coin": "BALBULL", "base_coin": "USDT", "local_name": "BALBULL/USDT", "ct_type": false}], 
        [20220630, {"ticksize": 1e-08, "lotsize": 1000.0, "min_order_size": 1000.0, "price_precision": 8.0, "qty_precision": 3.0, "multiple": 1.0, "coin": "BALBULL", "base_coin": "USDT", "local_name": "BALBULL/USDT", "ct_type": false}]
    ]
}