{
    "data": [
        [0, {"ticksize": 0.05, "lotsize": 0.0001, "min_order_size": 0.0001, "price_precision": 1.3010299956639813, "qty_precision": 4.0, "multiple": 1.0, "coin": "BVOL", "base_coin": "USDT", "local_name": "BVOL/USDT", "ct_type": false}]
    ]
}