{
    "data": [
        [0, {"ticksize": 0.0025, "lotsize": 0.01, "min_order_size": 0.01, "price_precision": 2.6020599913279625, "qty_precision": 2.0, "multiple": 1.0, "coin": "COIN", "base_coin": "USD", "local_name": "COIN/USD", "ct_type": false}]
    ]
}