{
    "data": [
        [0, {"ticksize": 1e-07, "lotsize": 100.0, "min_order_size": 100.0, "price_precision": 7.0, "qty_precision": 2.0, "multiple": 1.0, "coin": "DEFIBEAR", "base_coin": "USDT", "local_name": "DEFIBEAR/USDT", "ct_type": false}], 
        [20220630, {"ticksize": 2.5e-07, "lotsize": 100.0, "min_order_size": 100.0, "price_precision": 6.6020599913279625, "qty_precision": 2.0, "multiple": 1.0, "coin": "DEFIBEAR", "base_coin": "USDT", "local_name": "DEFIBEAR/USDT", "ct_type": false}]
    ]
}