{
    "data": [
        [0, {"ticksize": 0.0005, "lotsize": 0.1, "min_order_size": 0.1, "price_precision": 3.3010299956639813, "qty_precision": 1.0, "multiple": 1.0, "coin": "DOGEBULL", "base_coin": "USD", "local_name": "DOGEBULL/USD", "ct_type": false}], 
        [20220630, {"ticksize": 1e-05, "lotsize": 1.0, "min_order_size": 1.0, "price_precision": 5.0, "qty_precision": 0.0, "multiple": 1.0, "coin": "DOGEBULL", "base_coin": "USD", "local_name": "DOGEBULL/USD", "ct_type": false}]
    ]
}