{
    "data": [
        [0, {"ticksize": 5e-05, "lotsize": 1.0, "min_order_size": 1.0, "price_precision": 4.301029995663981, "qty_precision": 0.0, "multiple": 1.0, "coin": "ETCBULL", "base_coin": "USD", "local_name": "ETCBULL/USD", "ct_type": false}], 
        [20220630, {"ticksize": 1e-06, "lotsize": 10.0, "min_order_size": 10.0, "price_precision": 6.0, "qty_precision": 1.0, "multiple": 1.0, "coin": "ETCBULL", "base_coin": "USD", "local_name": "ETCBULL/USD", "ct_type": false}]
    ]
}