{
    "data": [
        [0, {"ticksize": 1e-05, "lotsize": 10.0, "min_order_size": 10.0, "price_precision": 5.0, "qty_precision": 1.0, "multiple": 1.0, "coin": "PEOPLE", "base_coin": "USD", "local_name": "PEOPLE/USD", "ct_type": false}]
    ]
}