{
    "data": [
        [0, {"ticksize": 0.025, "lotsize": 0.005, "min_order_size": 0.005, "price_precision": 1.6020599913279623, "qty_precision": 2.3010299956639813, "multiple": 1.0, "coin": "SQ", "base_coin": "USD", "local_name": "SQ/USD", "ct_type": false}]
    ]
}