{
    "data": [
        [0, {"ticksize": 1e-08, "lotsize": 10000000.0, "min_order_size": 10000000.0, "price_precision": 8.0, "qty_precision": 7.0, "multiple": 1.0, "coin": "SUSHIBEAR", "base_coin": "USD", "local_name": "SUSHIBEAR/USD", "ct_type": false}]
    ]
}