{
    "data": [
        [0, {"ticksize": 0.0001, "lotsize": 0.5, "min_order_size": 0.5, "price_precision": 4.0, "qty_precision": 0.3010299956639812, "multiple": 1.0, "coin": "SUSHI", "base_coin": "USDT", "local_name": "SUSHI/USDT", "ct_type": false}]
    ]
}