{
    "data": [
        [0, {"ticksize": 1.0, "lotsize": 0.01, "min_order_size": 0.01, "price_precision": 0.0, "qty_precision": 2.0, "multiple": 1.0, "coin": "TSLA", "base_coin": "DOGE", "local_name": "TSLA/DOGE", "ct_type": false}]
    ]
}