{
    "data": [
        [0, {"ticksize": 0.0025, "lotsize": 0.01, "min_order_size": 0.01, "price_precision": 2.6020599913279625, "qty_precision": 2.0, "multiple": 1.0, "coin": "UNISWAPBULL", "base_coin": "USD", "local_name": "UNISWAPBULL/USD", "ct_type": false}], 
        [20220630, {"ticksize": 2.5e-05, "lotsize": 1.0, "min_order_size": 1.0, "price_precision": 4.6020599913279625, "qty_precision": 0.0, "multiple": 1.0, "coin": "UNISWAPBULL", "base_coin": "USD", "local_name": "UNISWAPBULL/USD", "ct_type": false}]
    ]
}