{
    "data": [
        [0, {"ticksize": 1e-05, "lotsize": 1.0, "min_order_size": 1.0, "price_precision": 5.0, "qty_precision": 0.0, "multiple": 1.0, "coin": "XLMBULL", "base_coin": "USD", "local_name": "XLMBULL/USD", "ct_type": false}], 
        [20220630, {"ticksize": 1e-06, "lotsize": 100.0, "min_order_size": 100.0, "price_precision": 6.0, "qty_precision": 2.0, "multiple": 1.0, "coin": "XLMBULL", "base_coin": "USD", "local_name": "XLMBULL/USD", "ct_type": false}]
    ]
}