{
    "data": [
        [0, {"ticksize": 2.5e-05, "lotsize": 1.0, "min_order_size": 1.0, "price_precision": 4.6020599913279625, "qty_precision": 0.0, "multiple": 1.0, "coin": "XRP", "base_coin": "USD", "local_name": "XRP/USD", "ct_type": false}]
    ]
}