{
    "data": [
        [0, {"ticksize": 0.001, "lotsize": 1.0, "min_order_size": 1.0, "price_precision": 3.0, "qty_precision": 0.0, "multiple": 1.0, "coin": "QTUM", "base_coin": "USDT", "local_name": "QTUM-USDT-SWAP", "ct_type": "standard"}]
    ]
}