{
    "data": [
        [0, {"ticksize": 0.0001, "lotsize": 1.0, "min_order_size": 1.0, "price_precision": 4.0, "qty_precision": 0.0, "multiple": 10.0, "coin": "SUSHI", "base_coin": "USD", "local_name": "SUSHI-USD-SWAP", "ct_type": "inverse"}], 
        [20220630, {"ticksize": 0.001, "lotsize": 1.0, "min_order_size": 1.0, "price_precision": 3.0, "qty_precision": 0.0, "multiple": 10.0, "coin": "SUSHI", "base_coin": "USD", "local_name": "SUSHI-USD-SWAP", "ct_type": "inverse"}]
    ]
}