{
    "data": [
        [0, {"ticksize": 0.1, "lotsize": 0.001, "min_order_size": 0.001, "price_precision": 1.0, "qty_precision": 8.0, "multiple": 1.0, "coin": "MKR", "base_coin": "USD", "local_name": "MKR-USD", "ct_type": false}]
    ]
}