{
    "data": [
        [0, {"ticksize": 1e-08, "lotsize": 50000.0, "min_order_size": 50000.0, "price_precision": 8.0, "qty_precision": 0.0, "multiple": 1.0, "coin": "SHIB", "base_coin": "USD", "local_name": "SHIB-USD", "ct_type": false}]
    ]
}