{
    "data": [
        [0, {"ticksize": 0.0001, "lotsize": 1.0, "min_order_size": 1.0, "price_precision": 4.0, "qty_precision": 6.0, "multiple": 1.0, "coin": "USDC", "base_coin": "USDT", "local_name": "USDC-USDT", "ct_type": false}]
    ]
}