{
    "data": [
        [0, {"ticksize": 0.001, "lotsize": 0.1, "min_order_size": 0.1, "price_precision": 3.0, "qty_precision": 1.0, "multiple": 1.0, "coin": "FIL", "base_coin": "USDT", "local_name": "FILUSDT", "ct_type": "standard"}]
    ]
}