{
    "data": [
        [0, {"ticksize": 0.01, "lotsize": 1e-06, "min_order_size": 1e-06, "price_precision": 2.0, "qty_precision": 6.0, "multiple": 1.0, "coin": "BTC", "base_coin": "USDT", "local_name": "BTCUSDT", "ct_type": false}]
    ]
}