{
    "data": [
        [20220630, {"ticksize": 0.0001, "lotsize": 1.0, "min_order_size": 1.0, "price_precision": 4.0, "qty_precision": 0.0, "multiple": 1.0, "coin": "REN", "base_coin": "USD", "local_name": "RENUSD", "ct_type": false}]
    ]
}