{
    "data": [
        [0, {"ticksize": 1e-08, "lotsize": 1000000.0, "min_order_size": 1000000.0, "price_precision": 8.0, "qty_precision": 6.0, "multiple": 1.0, "coin": "BTT", "base_coin": "USD", "local_name": "BTT-PERP", "ct_type": "standard"}]
    ]
}