{
    "data": [
        [0, {"ticksize": 0.00025, "lotsize": 0.1, "min_order_size": 0.1, "price_precision": 3.6020599913279625, "qty_precision": 1.0, "multiple": 1.0, "coin": "EOS", "base_coin": "USD", "local_name": "EOS-PERP", "ct_type": "standard"}]
    ]
}