{
    "data": [
        [0, {"ticksize": 0.1, "lotsize": 0.01, "min_order_size": 0.01, "price_precision": 1.0, "qty_precision": 2.0, "multiple": 1.0, "coin": "MEDIA", "base_coin": "USD", "local_name": "MEDIA-PERP", "ct_type": "standard"}]
    ]
}