{
    "data": [
        [0, {"ticksize": 1e-08, "lotsize": 0.001, "min_order_size": 0.001, "price_precision": 8.0, "qty_precision": 2.0, "multiple": 1.0, "coin": "AR", "base_coin": "BTC", "local_name": "arbtc", "ct_type": false}], 
        [20220630, {"ticksize": 1e-08, "lotsize": 0.01, "min_order_size": 0.01, "price_precision": 8.0, "qty_precision": 2.0, "multiple": 1.0, "coin": "AR", "base_coin": "BTC", "local_name": "arbtc", "ct_type": false}]
    ]
}