{
    "data": [
        [0, {"ticksize": 1e-06, "lotsize": 0.01, "min_order_size": 0.01, "price_precision": 6.0, "qty_precision": 2.0, "multiple": 1.0, "coin": "BNT", "base_coin": "ETH", "local_name": "bnteth", "ct_type": false}]
    ]
}