{
    "data": [
        [0, {"ticksize": 0.01, "lotsize": 0.0001, "min_order_size": 0.0001, "price_precision": 2.0, "qty_precision": 6.0, "multiple": 1.0, "coin": "BTC", "base_coin": "HUSD", "local_name": "btchusd", "ct_type": false}], 
        [20220630, {"ticksize": 0.01, "lotsize": 1e-06, "min_order_size": 1e-06, "price_precision": 2.0, "qty_precision": 6.0, "multiple": 1.0, "coin": "BTC", "base_coin": "HUSD", "local_name": "btchusd", "ct_type": false}]
    ]
}