{
    "data": [
        [20220630, {"ticksize": 1e-06, "lotsize": 0.0001, "min_order_size": 0.0001, "price_precision": 6.0, "qty_precision": 4.0, "multiple": 1.0, "coin": "CHZ", "base_coin": "USDC", "local_name": "chzusdc", "ct_type": false}]
    ]
}