{
    "data": [
        [0, {"ticksize": 1e-10, "lotsize": 1.0, "min_order_size": 1.0, "price_precision": 10.0, "qty_precision": 4.0, "multiple": 1.0, "coin": "COVA", "base_coin": "ETH", "local_name": "covaeth", "ct_type": false}], 
        [20220630, {"ticksize": 1e-10, "lotsize": 0.0001, "min_order_size": 0.0001, "price_precision": 10.0, "qty_precision": 4.0, "multiple": 1.0, "coin": "COVA", "base_coin": "ETH", "local_name": "covaeth", "ct_type": false}]
    ]
}