{
    "data": [
        [0, {"ticksize": 0.0001, "lotsize": 1.0, "min_order_size": 1.0, "price_precision": 4.0, "qty_precision": 2.0, "multiple": 1.0, "coin": "CRO", "base_coin": "HT", "local_name": "croht", "ct_type": false}], 
        [20220630, {"ticksize": 0.0001, "lotsize": 0.01, "min_order_size": 0.01, "price_precision": 4.0, "qty_precision": 2.0, "multiple": 1.0, "coin": "CRO", "base_coin": "HT", "local_name": "croht", "ct_type": false}]
    ]
}