{
    "data": [
        [0, {"ticksize": 1e-08, "lotsize": 0.1, "min_order_size": 0.1, "price_precision": 8.0, "qty_precision": 0.0, "multiple": 1.0, "coin": "CVC", "base_coin": "ETH", "local_name": "cvceth", "ct_type": false}], 
        [20220630, {"ticksize": 1e-08, "lotsize": 1.0, "min_order_size": 1.0, "price_precision": 8.0, "qty_precision": 0.0, "multiple": 1.0, "coin": "CVC", "base_coin": "ETH", "local_name": "cvceth", "ct_type": false}]
    ]
}