{
    "data": [
        [0, {"ticksize": 1e-06, "lotsize": 1.0, "min_order_size": 1.0, "price_precision": 6.0, "qty_precision": 2.0, "multiple": 1.0, "coin": "DAC", "base_coin": "USDT", "local_name": "dacusdt", "ct_type": false}], 
        [20220630, {"ticksize": 1e-06, "lotsize": 0.01, "min_order_size": 0.01, "price_precision": 6.0, "qty_precision": 2.0, "multiple": 1.0, "coin": "DAC", "base_coin": "USDT", "local_name": "dacusdt", "ct_type": false}]
    ]
}