{
    "data": [
        [0, {"ticksize": 1e-08, "lotsize": 1.0, "min_order_size": 1.0, "price_precision": 8.0, "qty_precision": 4.0, "multiple": 1.0, "coin": "HitChain", "base_coin": "USDT", "local_name": "hitusdt", "ct_type": false}], 
        [20220630, {"ticksize": 1e-08, "lotsize": 0.0001, "min_order_size": 0.0001, "price_precision": 8.0, "qty_precision": 4.0, "multiple": 1.0, "coin": "HitChain", "base_coin": "USDT", "local_name": "hitusdt", "ct_type": false}]
    ]
}