{
    "data": [
        [0, {"ticksize": 0.0001, "lotsize": 0.01, "min_order_size": 0.01, "price_precision": 4.0, "qty_precision": 4.0, "multiple": 1.0, "coin": "KNC", "base_coin": "HUSD", "local_name": "knchusd", "ct_type": false}], 
        [20220630, {"ticksize": 0.0001, "lotsize": 0.0001, "min_order_size": 0.0001, "price_precision": 4.0, "qty_precision": 4.0, "multiple": 1.0, "coin": "KNC", "base_coin": "HUSD", "local_name": "knchusd", "ct_type": false}]
    ]
}