{
    "data": [
        [0, {"ticksize": 0.0001, "lotsize": 0.001, "min_order_size": 0.001, "price_precision": 4.0, "qty_precision": 4.0, "multiple": 1.0, "coin": "LUNA", "base_coin": "UST", "local_name": "lunaust", "ct_type": false}]
    ]
}