{
    "data": [
        [20220630, {"ticksize": 1e-08, "lotsize": 0.01, "min_order_size": 0.01, "price_precision": 8.0, "qty_precision": 2.0, "multiple": 1.0, "coin": "LUNC", "base_coin": "USDT", "local_name": "luncusdt", "ct_type": false}]
    ]
}