{
    "data": [
        [20220630, {"ticksize": 0.0001, "lotsize": 0.01, "min_order_size": 0.01, "price_precision": 4.0, "qty_precision": 2.0, "multiple": 1.0, "coin": "NEAR", "base_coin": "USDC", "local_name": "nearusdc", "ct_type": false}]
    ]
}