{
    "data": [
        [20220630, {"ticksize": 1e-10, "lotsize": 1.0, "min_order_size": 1.0, "price_precision": 10.0, "qty_precision": 0.0, "multiple": 1.0, "coin": "NFT", "base_coin": "USDD", "local_name": "nftusdd", "ct_type": false}]
    ]
}