{
    "data": [
        [20220630, {"ticksize": 1e-10, "lotsize": 0.01, "min_order_size": 0.01, "price_precision": 10.0, "qty_precision": 2.0, "multiple": 1.0, "coin": "T", "base_coin": "BTC", "local_name": "tbtc", "ct_type": false}]
    ]
}