{
    "data": [
        [0, {"ticksize": 1e-12, "lotsize": 1.0, "min_order_size": 1.0, "price_precision": 12.0, "qty_precision": 2.0, "multiple": 1.0, "coin": "UC", "base_coin": "BTC", "local_name": "ucbtc", "ct_type": false}], 
        [20220630, {"ticksize": 1e-14, "lotsize": 0.01, "min_order_size": 0.01, "price_precision": 14.0, "qty_precision": 2.0, "multiple": 1.0, "coin": "UC", "base_coin": "BTC", "local_name": "ucbtc", "ct_type": false}]
    ]
}