{
    "data": [
        [20220630, {"ticksize": 0.0001, "lotsize": 0.0001, "min_order_size": 0.0001, "price_precision": 4.0, "qty_precision": 4.0, "multiple": 1.0, "coin": "USTC", "base_coin": "USDT", "local_name": "ustcusdt", "ct_type": false}]
    ]
}