{
    "data": [
        [0, {"ticksize": 1.0, "lotsize": 0.001, "min_order_size": 0.001, "price_precision": 0.0, "qty_precision": 3.0, "multiple": 1.0, "coin": "AAVE", "base_coin": "BKRW", "local_name": "AAVEBKRW", "ct_type": false}]
    ]
}