{
    "data": [
        [0, {"ticksize": 1e-05, "lotsize": 0.01, "min_order_size": 0.01, "price_precision": 5.0, "qty_precision": 2.0, "multiple": 1.0, "coin": "ANC", "base_coin": "BNB", "local_name": "ANCBNB", "ct_type": false}], 
        [20220630, {"ticksize": 1e-07, "lotsize": 0.01, "min_order_size": 0.01, "price_precision": 7.0, "qty_precision": 2.0, "multiple": 1.0, "coin": "ANC", "base_coin": "BNB", "local_name": "ANCBNB", "ct_type": false}]
    ]
}