{
    "data": [
        [0, {"ticksize": 0.001, "lotsize": 0.001, "min_order_size": 0.001, "price_precision": 3.0, "qty_precision": 3.0, "multiple": 1.0, "coin": "ATOM", "base_coin": "TUSD", "local_name": "ATOMTUSD", "ct_type": false}]
    ]
}