{
    "data": [
        [0, {"ticksize": 1e-05, "lotsize": 0.001, "min_order_size": 0.001, "price_precision": 5.0, "qty_precision": 3.0, "multiple": 1.0, "coin": "BCH", "base_coin": "BTC", "local_name": "BCHBTC", "ct_type": false}]
    ]
}