{
    "data": [
        [0, {"ticksize": 1e-07, "lotsize": 0.1, "min_order_size": 0.1, "price_precision": 7.0, "qty_precision": 1.0, "multiple": 1.0, "coin": "BETA", "base_coin": "ETH", "local_name": "BETAETH", "ct_type": false}]
    ]
}