{
    "data": [
        [0, {"ticksize": 1e-07, "lotsize": 0.01, "min_order_size": 0.01, "price_precision": 7.0, "qty_precision": 2.0, "multiple": 1.0, "coin": "BTCST", "base_coin": "BTC", "local_name": "BTCSTBTC", "ct_type": false}]
    ]
}