{
    "data": [
        [0, {"ticksize": 0.001, "lotsize": 0.1, "min_order_size": 0.1, "price_precision": 3.0, "qty_precision": 1.0, "multiple": 1.0, "coin": "CLV", "base_coin": "USDT", "local_name": "CLVUSDT", "ct_type": false}], 
        [20220630, {"ticksize": 1e-05, "lotsize": 0.1, "min_order_size": 0.1, "price_precision": 5.0, "qty_precision": 1.0, "multiple": 1.0, "coin": "CLV", "base_coin": "USDT", "local_name": "CLVUSDT", "ct_type": false}]
    ]
}