{
    "data": [
        [0, {"ticksize": 0.01, "lotsize": 0.01, "min_order_size": 0.01, "price_precision": 2.0, "qty_precision": 2.0, "multiple": 1.0, "coin": "COCOS", "base_coin": "TRY", "local_name": "COCOSTRY", "ct_type": false}]
    ]
}