{
    "data": [
        [0, {"ticksize": 0.0001, "lotsize": 0.001, "min_order_size": 0.001, "price_precision": 4.0, "qty_precision": 3.0, "multiple": 1.0, "coin": "FARM", "base_coin": "BNB", "local_name": "FARMBNB", "ct_type": false}]
    ]
}