{
    "data": [
        [0, {"ticksize": 1e-05, "lotsize": 1.0, "min_order_size": 1.0, "price_precision": 5.0, "qty_precision": 0.0, "multiple": 1.0, "coin": "SPELL", "base_coin": "USDT", "local_name": "SPELLUSDT", "ct_type": false}], 
        [20220630, {"ticksize": 1e-07, "lotsize": 1.0, "min_order_size": 1.0, "price_precision": 7.0, "qty_precision": 0.0, "multiple": 1.0, "coin": "SPELL", "base_coin": "USDT", "local_name": "SPELLUSDT", "ct_type": false}]
    ]
}