{
    "data": [
        [0, {"ticksize": 1e-06, "lotsize": 0.1, "min_order_size": 0.1, "price_precision": 6.0, "qty_precision": 1.0, "multiple": 1.0, "coin": "VGX", "base_coin": "ETH", "local_name": "VGXETH", "ct_type": false}]
    ]
}