{
    "data": [
        [0, {"ticksize": 0.01, "lotsize": 0.1, "min_order_size": 0.1, "price_precision": 2.0, "qty_precision": 0.0, "multiple": 10.0, "coin": "COMP", "base_coin": "USD", "local_name": "COMP-USD", "ct_type": "inverse"}], 
        [20220630, {"ticksize": 0.01, "lotsize": 1.0, "min_order_size": 1.0, "price_precision": 2.0, "qty_precision": 0.0, "multiple": 10.0, "coin": "COMP", "base_coin": "USD", "local_name": "COMP-USD", "ct_type": "inverse"}]
    ]
}