{
    "data": [
        [20220630, {"ticksize": 0.1, "lotsize": 1.0, "min_order_size": 1.0, "price_precision": 1.0, "qty_precision": 0.0, "multiple": 0.001, "coin": "MKR", "base_coin": "USDT", "local_name": "MKR-USDT", "ct_type": "standard"}]
    ]
}