{
    "data": [
        [20220630, {"ticksize": 1e-08, "lotsize": 1.0, "min_order_size": 1.0, "price_precision": 8.0, "qty_precision": 0.0, "multiple": 10000.0, "coin": "WIN", "base_coin": "USDT", "local_name": "WIN-USDT", "ct_type": "standard"}]
    ]
}